^C:\MYVISUALSTUDIO2017PROJECTS\03-WINRT\GUI\NOGRIDNOPAGENOAPP\PCH.CPP
C:\MYVISUALSTUDIO2017PROJECTS\03-WINRT\GUI\NOGRIDNOPAGENOAPP\DEBUG\NOGRIDNOPAGENOAPP.PCH
C:\MYVISUALSTUDIO2017PROJECTS\03-WINRT\GUI\NOGRIDNOPAGENOAPP\DEBUG\VC141.PDB
C:\MYVISUALSTUDIO2017PROJECTS\03-WINRT\GUI\NOGRIDNOPAGENOAPP\DEBUG\VC141.IDB
C:\MYVISUALSTUDIO2017PROJECTS\03-WINRT\GUI\NOGRIDNOPAGENOAPP\DEBUG\PCH.OBJ
^C:\MYVISUALSTUDIO2017PROJECTS\03-WINRT\GUI\NOGRIDNOPAGENOAPP\GENERATED FILES\XAMLTYPEINFO.IMPL.G.CPP|C:\MYVISUALSTUDIO2017PROJECTS\03-WINRT\GUI\NOGRIDNOPAGENOAPP\HELLO.CPP|C:\MYVISUALSTUDIO2017PROJECTS\03-WINRT\GUI\NOGRIDNOPAGENOAPP\MAINPAGE.XAML.CPP
C:\MYVISUALSTUDIO2017PROJECTS\03-WINRT\GUI\NOGRIDNOPAGENOAPP\DEBUG\MAINPAGE.XAML.OBJ
C:\MYVISUALSTUDIO2017PROJECTS\03-WINRT\GUI\NOGRIDNOPAGENOAPP\DEBUG\HELLO.OBJ
C:\MYVISUALSTUDIO2017PROJECTS\03-WINRT\GUI\NOGRIDNOPAGENOAPP\DEBUG\XAMLTYPEINFO.IMPL.G.OBJ
^C:\MYVISUALSTUDIO2017PROJECTS\03-WINRT\GUI\NOGRIDNOPAGENOAPP\HELLO.CPP
C:\MYVISUALSTUDIO2017PROJECTS\03-WINRT\GUI\NOGRIDNOPAGENOAPP\DEBUG\VC141.PDB
^C:\MYVISUALSTUDIO2017PROJECTS\03-WINRT\GUI\NOGRIDNOPAGENOAPP\MAINPAGE.XAML.CPP
C:\MYVISUALSTUDIO2017PROJECTS\03-WINRT\GUI\NOGRIDNOPAGENOAPP\DEBUG\VC141.PDB
^C:\MYVISUALSTUDIO2017PROJECTS\03-WINRT\GUI\NOGRIDNOPAGENOAPP\GENERATED FILES\XAMLTYPEINFO.IMPL.G.CPP
C:\MYVISUALSTUDIO2017PROJECTS\03-WINRT\GUI\NOGRIDNOPAGENOAPP\DEBUG\VC141.PDB
^C:\MYVISUALSTUDIO2017PROJECTS\03-WINRT\GUI\NOGRIDNOPAGENOAPP\GENERATED FILES\XAMLTYPEINFO.G.CPP
C:\MYVISUALSTUDIO2017PROJECTS\03-WINRT\GUI\NOGRIDNOPAGENOAPP\DEBUG\VC141.PDB
C:\MYVISUALSTUDIO2017PROJECTS\03-WINRT\GUI\NOGRIDNOPAGENOAPP\DEBUG\VC141.IDB
C:\MYVISUALSTUDIO2017PROJECTS\03-WINRT\GUI\NOGRIDNOPAGENOAPP\DEBUG\XAMLTYPEINFO.G.OBJ
