^C:\MYVISUALSTUDIO2017PROJECTS\03-WINRT\GUI\NOGRIDNOPAGENOAPP\DEBUG\HELLO.OBJ|C:\MYVISUALSTUDIO2017PROJECTS\03-WINRT\GUI\NOGRIDNOPAGENOAPP\DEBUG\MAINPAGE.XAML.OBJ|C:\MYVISUALSTUDIO2017PROJECTS\03-WINRT\GUI\NOGRIDNOPAGENOAPP\DEBUG\PCH.OBJ|C:\MYVISUALSTUDIO2017PROJECTS\03-WINRT\GUI\NOGRIDNOPAGENOAPP\DEBUG\XAMLTYPEINFO.IMPL.G.OBJ|C:\MYVISUALSTUDIO2017PROJECTS\03-WINRT\GUI\NOGRIDNOPAGENOAPP\__WINMD_ONLY__
C:\PROGRAM FILES (X86)\WINDOWS KITS\10\LIB\10.0.17134.0\UM\X86\WINDOWSAPP.LIB
C:\MYVISUALSTUDIO2017PROJECTS\03-WINRT\GUI\NOGRIDNOPAGENOAPP\DEBUG\HELLO.OBJ
C:\MYVISUALSTUDIO2017PROJECTS\03-WINRT\GUI\NOGRIDNOPAGENOAPP\DEBUG\MAINPAGE.XAML.OBJ
C:\MYVISUALSTUDIO2017PROJECTS\03-WINRT\GUI\NOGRIDNOPAGENOAPP\DEBUG\PCH.OBJ
C:\MYVISUALSTUDIO2017PROJECTS\03-WINRT\GUI\NOGRIDNOPAGENOAPP\DEBUG\XAMLTYPEINFO.IMPL.G.OBJ
C:\WINDOWS\MICROSOFT.NET\FRAMEWORK\V2.0.50727\MSCORWKS.DLL
C:\WINDOWS\MICROSOFT.NET\FRAMEWORK\V4.0.30319\CLR.DLL
C:\PROGRAM FILES (X86)\MICROSOFT VISUAL STUDIO\2017\COMMUNITY\VC\TOOLS\MSVC\14.16.27023\BIN\HOSTX86\X86\LINK.EXE.CONFIG
C:\WINDOWS\GLOBALIZATION\SORTING\SORTDEFAULT.NLS
C:\PROGRAM FILES (X86)\MICROSOFT VISUAL STUDIO\2017\COMMUNITY\VC\TOOLS\MSVC\14.16.27023\LIB\X86\STORE\VCCORLIBD.LIB
C:\PROGRAM FILES (X86)\MICROSOFT VISUAL STUDIO\2017\COMMUNITY\VC\TOOLS\MSVC\14.16.27023\LIB\X86\STORE\MSVCPRTD.LIB
C:\PROGRAM FILES (X86)\WINDOWS KITS\10\LIB\10.0.17134.0\UM\X86\UUID.LIB
C:\PROGRAM FILES (X86)\MICROSOFT VISUAL STUDIO\2017\COMMUNITY\VC\TOOLS\MSVC\14.16.27023\LIB\X86\STORE\MSVCRTD.LIB
C:\PROGRAM FILES (X86)\MICROSOFT VISUAL STUDIO\2017\COMMUNITY\VC\TOOLS\MSVC\14.16.27023\LIB\X86\STORE\OLDNAMES.LIB
C:\PROGRAM FILES (X86)\MICROSOFT VISUAL STUDIO\2017\COMMUNITY\VC\TOOLS\MSVC\14.16.27023\LIB\X86\STORE\VCRUNTIMED.LIB
C:\PROGRAM FILES (X86)\WINDOWS KITS\10\LIB\10.0.17134.0\UCRT\X86\UCRTD.LIB
C:\WINDOWS\SYSTEM32\TZRES.DLL
^C:\MYVISUALSTUDIO2017PROJECTS\03-WINRT\GUI\NOGRIDNOPAGENOAPP\DEBUG\HELLO.OBJ|C:\MYVISUALSTUDIO2017PROJECTS\03-WINRT\GUI\NOGRIDNOPAGENOAPP\DEBUG\MAINPAGE.XAML.OBJ|C:\MYVISUALSTUDIO2017PROJECTS\03-WINRT\GUI\NOGRIDNOPAGENOAPP\DEBUG\PCH.OBJ|C:\MYVISUALSTUDIO2017PROJECTS\03-WINRT\GUI\NOGRIDNOPAGENOAPP\DEBUG\XAMLTYPEINFO.G.OBJ|C:\MYVISUALSTUDIO2017PROJECTS\03-WINRT\GUI\NOGRIDNOPAGENOAPP\DEBUG\XAMLTYPEINFO.IMPL.G.OBJ
C:\PROGRAM FILES (X86)\WINDOWS KITS\10\LIB\10.0.17134.0\UM\X86\WINDOWSAPP.LIB
C:\MYVISUALSTUDIO2017PROJECTS\03-WINRT\GUI\NOGRIDNOPAGENOAPP\DEBUG\HELLO.OBJ
C:\MYVISUALSTUDIO2017PROJECTS\03-WINRT\GUI\NOGRIDNOPAGENOAPP\DEBUG\MAINPAGE.XAML.OBJ
C:\MYVISUALSTUDIO2017PROJECTS\03-WINRT\GUI\NOGRIDNOPAGENOAPP\DEBUG\PCH.OBJ
C:\MYVISUALSTUDIO2017PROJECTS\03-WINRT\GUI\NOGRIDNOPAGENOAPP\DEBUG\XAMLTYPEINFO.IMPL.G.OBJ
C:\MYVISUALSTUDIO2017PROJECTS\03-WINRT\GUI\NOGRIDNOPAGENOAPP\DEBUG\XAMLTYPEINFO.G.OBJ
C:\WINDOWS\GLOBALIZATION\SORTING\SORTDEFAULT.NLS
C:\PROGRAM FILES (X86)\MICROSOFT VISUAL STUDIO\2017\COMMUNITY\VC\TOOLS\MSVC\14.16.27023\LIB\X86\STORE\VCCORLIBD.LIB
C:\PROGRAM FILES (X86)\MICROSOFT VISUAL STUDIO\2017\COMMUNITY\VC\TOOLS\MSVC\14.16.27023\LIB\X86\STORE\MSVCPRTD.LIB
C:\PROGRAM FILES (X86)\WINDOWS KITS\10\LIB\10.0.17134.0\UM\X86\UUID.LIB
C:\PROGRAM FILES (X86)\MICROSOFT VISUAL STUDIO\2017\COMMUNITY\VC\TOOLS\MSVC\14.16.27023\LIB\X86\STORE\MSVCRTD.LIB
C:\PROGRAM FILES (X86)\MICROSOFT VISUAL STUDIO\2017\COMMUNITY\VC\TOOLS\MSVC\14.16.27023\LIB\X86\STORE\OLDNAMES.LIB
C:\PROGRAM FILES (X86)\MICROSOFT VISUAL STUDIO\2017\COMMUNITY\VC\TOOLS\MSVC\14.16.27023\LIB\X86\STORE\VCRUNTIMED.LIB
C:\PROGRAM FILES (X86)\WINDOWS KITS\10\LIB\10.0.17134.0\UCRT\X86\UCRTD.LIB
C:\WINDOWS\SYSTEM32\TZRES.DLL
