^C:\MyVisualStudio2017Projects\03-WinRT\GUI\NoGridNoPageNoApp\NoGridNoPageNoApp.vcxproj
C:\MyVisualStudio2017Projects\03-WinRT\GUI\NoGridNoPageNoApp\Debug\NoGridNoPageNoApp\NoGridNoPageNoApp.winmd
^C:\MyVisualStudio2017Projects\03-WinRT\GUI\NoGridNoPageNoApp\NoGridNoPageNoApp.vcxproj
C:\MyVisualStudio2017Projects\03-WinRT\GUI\NoGridNoPageNoApp\Generated Files\MainPage.g.h
C:\MyVisualStudio2017Projects\03-WinRT\GUI\NoGridNoPageNoApp\Generated Files\XamlLibMetadataProvider.g.cpp
C:\MyVisualStudio2017Projects\03-WinRT\GUI\NoGridNoPageNoApp\Generated Files\XamlTypeInfo.Impl.g.cpp
C:\MyVisualStudio2017Projects\03-WinRT\GUI\NoGridNoPageNoApp\Generated Files\MainPage.xaml
C:\MyVisualStudio2017Projects\03-WinRT\GUI\NoGridNoPageNoApp\Generated Files\MainPage.xbf
C:\MyVisualStudio2017Projects\03-WinRT\GUI\NoGridNoPageNoApp\Debug\XamlSaveStateFile.xml
C:\MyVisualStudio2017Projects\03-WinRT\GUI\NoGridNoPageNoApp\Generated Files\MainPage.g.h
C:\MyVisualStudio2017Projects\03-WinRT\GUI\NoGridNoPageNoApp\Generated Files\XamlTypeInfo.g.cpp
C:\MyVisualStudio2017Projects\03-WinRT\GUI\NoGridNoPageNoApp\Generated Files\MainPage.xaml
C:\MyVisualStudio2017Projects\03-WinRT\GUI\NoGridNoPageNoApp\Generated Files\MainPage.xbf
C:\MyVisualStudio2017Projects\03-WinRT\GUI\NoGridNoPageNoApp\Debug\XamlSaveStateFile.xml
C:\MyVisualStudio2017Projects\03-WinRT\GUI\NoGridNoPageNoApp\Debug\NoGridNoPageNoApp\MainPage.xbf
C:\MyVisualStudio2017Projects\03-WinRT\GUI\NoGridNoPageNoApp\Debug\ResourceHandlingTask.state
C:\MyVisualStudio2017Projects\03-WinRT\GUI\NoGridNoPageNoApp\Debug\NoGridNoPageNoApp.vcxproj.GenerateResource.Cache
C:\MyVisualStudio2017Projects\03-WinRT\GUI\NoGridNoPageNoApp\Debug\priconfig.xml
C:\MyVisualStudio2017Projects\03-WinRT\GUI\NoGridNoPageNoApp\Debug\priconfig.xml.intermediate
C:\MyVisualStudio2017Projects\03-WinRT\GUI\NoGridNoPageNoApp\Debug\unfiltered.layout.resfiles
C:\MyVisualStudio2017Projects\03-WinRT\GUI\NoGridNoPageNoApp\Debug\unfiltered.layout.resfiles.intermediate
C:\MyVisualStudio2017Projects\03-WinRT\GUI\NoGridNoPageNoApp\Debug\filtered.layout.resfiles
C:\MyVisualStudio2017Projects\03-WinRT\GUI\NoGridNoPageNoApp\Debug\filtered.layout.resfiles.intermediate
C:\MyVisualStudio2017Projects\03-WinRT\GUI\NoGridNoPageNoApp\Debug\excluded.layout.resfiles
C:\MyVisualStudio2017Projects\03-WinRT\GUI\NoGridNoPageNoApp\Debug\excluded.layout.resfiles.intermediate
C:\MyVisualStudio2017Projects\03-WinRT\GUI\NoGridNoPageNoApp\Debug\resources.resfiles
C:\MyVisualStudio2017Projects\03-WinRT\GUI\NoGridNoPageNoApp\Debug\resources.resfiles.intermediate
C:\MyVisualStudio2017Projects\03-WinRT\GUI\NoGridNoPageNoApp\Debug\pri.resfiles
C:\MyVisualStudio2017Projects\03-WinRT\GUI\NoGridNoPageNoApp\Debug\pri.resfiles.intermediate
C:\MyVisualStudio2017Projects\03-WinRT\GUI\NoGridNoPageNoApp\Debug\NoGridNoPageNoApp\resources.pri
C:\MyVisualStudio2017Projects\03-WinRT\GUI\NoGridNoPageNoApp\Debug\qualifiers.txt
C:\MyVisualStudio2017Projects\03-WinRT\GUI\NoGridNoPageNoApp\Debug\qualifiers.txt.intermediate
C:\MyVisualStudio2017Projects\03-WinRT\GUI\NoGridNoPageNoApp\Debug\MultipleQualifiersPerDimensionFound.txt
C:\MyVisualStudio2017Projects\03-WinRT\GUI\NoGridNoPageNoApp\Debug\ProjectArchitectures.txt
C:\MyVisualStudio2017Projects\03-WinRT\GUI\NoGridNoPageNoApp\Debug\NoGridNoPageNoApp\AppxManifest.xml
C:\MyVisualStudio2017Projects\03-WinRT\GUI\NoGridNoPageNoApp\Debug\NoGridNoPageNoApp\NoGridNoPageNoApp.build.appxrecipe
