^C:\MYVISUALSTUDIO2017PROJECTS\01-WIN32\9.1-EXPLICITDLLFORPHYSICS\EXPLICITDLLFORPHYSICS\DEBUG\EXPLICITDLLFORPHYSICS.OBJ
C:\MYVISUALSTUDIO2017PROJECTS\01-WIN32\9.1-EXPLICITDLLFORPHYSICS\EXPLICITDLLFORPHYSICS\DEBUG\EXPLICITDLLFORPHYSICS.DLL
C:\MYVISUALSTUDIO2017PROJECTS\01-WIN32\9.1-EXPLICITDLLFORPHYSICS\EXPLICITDLLFORPHYSICS\DEBUG\EXPLICITDLLFORPHYSICS.ILK
C:\MYVISUALSTUDIO2017PROJECTS\01-WIN32\9.1-EXPLICITDLLFORPHYSICS\EXPLICITDLLFORPHYSICS\DEBUG\EXPLICITDLLFORPHYSICS.PDB
