^C:\MyVisualStudio2017Projects\01-Win32\9.2-ClassFactoryDllForChemistry\9.2-ClassFactoryDllForChemistry.vcxproj
C:\MyVisualStudio2017Projects\01-Win32\9.2-ClassFactoryDllForChemistry\Debug\9.2-ClassFactoryDllForChemistry.lib
C:\MyVisualStudio2017Projects\01-Win32\9.2-ClassFactoryDllForChemistry\Debug\9.2-ClassFactoryDllForChemistry.exp
^C:\MyVisualStudio2017Projects\01-Win32\9.2-ClassFactoryDllForChemistry\9.2-ClassFactoryDllForChemistry.vcxproj
C:\MyVisualStudio2017Projects\01-Win32\9.2-ClassFactoryDllForChemistry\Debug\9.2-ClassFactoryDllForChemistry.lib
C:\MyVisualStudio2017Projects\01-Win32\9.2-ClassFactoryDllForChemistry\Debug\9.2-ClassFactoryDllForChemistry.exp
