^C:\MYVISUALSTUDIO2017PROJECTS\03-WINRT\GUI\NOGRID\PCH.CPP
C:\MYVISUALSTUDIO2017PROJECTS\03-WINRT\GUI\NOGRID\DEBUG\NOGRID.PCH
C:\MYVISUALSTUDIO2017PROJECTS\03-WINRT\GUI\NOGRID\DEBUG\VC141.PDB
C:\MYVISUALSTUDIO2017PROJECTS\03-WINRT\GUI\NOGRID\DEBUG\VC141.IDB
C:\MYVISUALSTUDIO2017PROJECTS\03-WINRT\GUI\NOGRID\DEBUG\PCH.OBJ
^C:\MYVISUALSTUDIO2017PROJECTS\03-WINRT\GUI\NOGRID\APP.XAML.CPP|C:\MYVISUALSTUDIO2017PROJECTS\03-WINRT\GUI\NOGRID\GENERATED FILES\XAMLTYPEINFO.IMPL.G.CPP|C:\MYVISUALSTUDIO2017PROJECTS\03-WINRT\GUI\NOGRID\MAINPAGE.XAML.CPP
C:\MYVISUALSTUDIO2017PROJECTS\03-WINRT\GUI\NOGRID\DEBUG\MAINPAGE.XAML.OBJ
C:\MYVISUALSTUDIO2017PROJECTS\03-WINRT\GUI\NOGRID\DEBUG\APP.XAML.OBJ
C:\MYVISUALSTUDIO2017PROJECTS\03-WINRT\GUI\NOGRID\DEBUG\XAMLTYPEINFO.IMPL.G.OBJ
^C:\MYVISUALSTUDIO2017PROJECTS\03-WINRT\GUI\NOGRID\APP.XAML.CPP
C:\MYVISUALSTUDIO2017PROJECTS\03-WINRT\GUI\NOGRID\DEBUG\VC141.PDB
^C:\MYVISUALSTUDIO2017PROJECTS\03-WINRT\GUI\NOGRID\MAINPAGE.XAML.CPP
C:\MYVISUALSTUDIO2017PROJECTS\03-WINRT\GUI\NOGRID\DEBUG\VC141.PDB
^C:\MYVISUALSTUDIO2017PROJECTS\03-WINRT\GUI\NOGRID\GENERATED FILES\XAMLTYPEINFO.IMPL.G.CPP
C:\MYVISUALSTUDIO2017PROJECTS\03-WINRT\GUI\NOGRID\DEBUG\VC141.PDB
^C:\MYVISUALSTUDIO2017PROJECTS\03-WINRT\GUI\NOGRID\GENERATED FILES\XAMLTYPEINFO.G.CPP
C:\MYVISUALSTUDIO2017PROJECTS\03-WINRT\GUI\NOGRID\DEBUG\VC141.PDB
C:\MYVISUALSTUDIO2017PROJECTS\03-WINRT\GUI\NOGRID\DEBUG\VC141.IDB
C:\MYVISUALSTUDIO2017PROJECTS\03-WINRT\GUI\NOGRID\DEBUG\XAMLTYPEINFO.G.OBJ
