^C:\MYVISUALSTUDIO2017PROJECTS\01-WIN32\09-DIALOGBOX\DIALOGBOX.CPP
C:\MYVISUALSTUDIO2017PROJECTS\01-WIN32\09-DIALOGBOX\DEBUG\VC141.PDB
C:\MYVISUALSTUDIO2017PROJECTS\01-WIN32\09-DIALOGBOX\DEBUG\VC141.IDB
C:\MYVISUALSTUDIO2017PROJECTS\01-WIN32\09-DIALOGBOX\DEBUG\DIALOGBOX.OBJ
