^C:\MYVISUALSTUDIO2017PROJECTS\04-WINRT\GUI\EVENTHANDLING\DEBUG\HELLO.OBJ|C:\MYVISUALSTUDIO2017PROJECTS\04-WINRT\GUI\EVENTHANDLING\DEBUG\MAINPAGE.XAML.OBJ|C:\MYVISUALSTUDIO2017PROJECTS\04-WINRT\GUI\EVENTHANDLING\DEBUG\MYPAGE.OBJ|C:\MYVISUALSTUDIO2017PROJECTS\04-WINRT\GUI\EVENTHANDLING\DEBUG\PCH.OBJ|C:\MYVISUALSTUDIO2017PROJECTS\04-WINRT\GUI\EVENTHANDLING\DEBUG\XAMLTYPEINFO.IMPL.G.OBJ|C:\MYVISUALSTUDIO2017PROJECTS\04-WINRT\GUI\EVENTHANDLING\__WINMD_ONLY__
/OUT:"C:\MYVISUALSTUDIO2017PROJECTS\04-WINRT\GUI\EVENTHANDLING\DEBUG\EVENTHANDLING\EVENTHANDLING.EXE" /INCREMENTAL /NOLOGO WINDOWSAPP.LIB /MANIFEST:NO /DEBUG:FASTLINK /PDB:"C:\MYVISUALSTUDIO2017PROJECTS\04-WINRT\GUI\EVENTHANDLING\DEBUG\EVENTHANDLING\EVENTHANDLING.PDB" /SUBSYSTEM:WINDOWS /TLBID:1 /APPCONTAINER /WINMD:ONLY /WINMDFILE:"C:\MYVISUALSTUDIO2017PROJECTS\04-WINRT\GUI\EVENTHANDLING\DEBUG\EVENTHANDLING\EVENTHANDLING.WINMD" /DYNAMICBASE /NXCOMPAT /MACHINE:X86 DEBUG\HELLO.OBJDEBUG\MAINPAGE.XAML.OBJDEBUG\MYPAGE.OBJDEBUG\PCH.OBJDEBUG\XAMLTYPEINFO.IMPL.G.OBJ
^C:\MYVISUALSTUDIO2017PROJECTS\04-WINRT\GUI\EVENTHANDLING\DEBUG\HELLO.OBJ|C:\MYVISUALSTUDIO2017PROJECTS\04-WINRT\GUI\EVENTHANDLING\DEBUG\MAINPAGE.XAML.OBJ|C:\MYVISUALSTUDIO2017PROJECTS\04-WINRT\GUI\EVENTHANDLING\DEBUG\MYPAGE.OBJ|C:\MYVISUALSTUDIO2017PROJECTS\04-WINRT\GUI\EVENTHANDLING\DEBUG\PCH.OBJ|C:\MYVISUALSTUDIO2017PROJECTS\04-WINRT\GUI\EVENTHANDLING\DEBUG\XAMLTYPEINFO.G.OBJ|C:\MYVISUALSTUDIO2017PROJECTS\04-WINRT\GUI\EVENTHANDLING\DEBUG\XAMLTYPEINFO.IMPL.G.OBJ
/OUT:"C:\MYVISUALSTUDIO2017PROJECTS\04-WINRT\GUI\EVENTHANDLING\DEBUG\EVENTHANDLING\EVENTHANDLING.EXE" /INCREMENTAL /NOLOGO WINDOWSAPP.LIB /MANIFEST:NO /DEBUG:FASTLINK /PDB:"C:\MYVISUALSTUDIO2017PROJECTS\04-WINRT\GUI\EVENTHANDLING\DEBUG\EVENTHANDLING\EVENTHANDLING.PDB" /SUBSYSTEM:WINDOWS /TLBID:1 /APPCONTAINER /WINMD:NO /WINMDFILE:"C:\MYVISUALSTUDIO2017PROJECTS\04-WINRT\GUI\EVENTHANDLING\DEBUG\EVENTHANDLING\EVENTHANDLING.WINMD" /DYNAMICBASE /NXCOMPAT /MACHINE:X86 DEBUG\HELLO.OBJDEBUG\MAINPAGE.XAML.OBJDEBUG\MYPAGE.OBJDEBUG\PCH.OBJDEBUG\XAMLTYPEINFO.IMPL.G.OBJDEBUG\XAMLTYPEINFO.G.OBJ
