Windows Registry Editor Version 5.00
[HKEY_CLASSES_ROOT\WOW6432Node\CLSID\{34C85D57-0165-4105-9299-74D881233B0E}]
@="MyComDll"
[HKEY_CLASSES_ROOT\WOW6432Node\CLSID\{0x34c85d57, 0x165, 0x4105, 0x92, 0x99, 0x74, 0xd8, 0x81, 0x23, 0x3b, 0xe}\InprocServer32]
@="C:\\Windows\\SysWOW64\\9.2-ClassFactoryDllForChemistry.dll"

