		####################################################

		RESULTS OF THE OPERATION OF TOPIC - PHYSICS

		####################################################

		Force of Gravitation : 454.750000

		####################################################

