^C:\MYVISUALSTUDIO2017PROJECTS\03-WINRT\GUI\IDE\PCH.CPP
/c /I"C:\MYVISUALSTUDIO2017PROJECTS\03-WINRT\GUI\IDE\\" /I"GENERATED FILES\\" /IDEBUG\ /ZI /JMC /ZW /ZW:nostdlib /nologo /W3 /WX- /diagnostics:classic /sdl /Od /Oy- /D _UNICODE /D UNICODE /D _DEBUG /D WINAPI_FAMILY=WINAPI_FAMILY_APP /D __WRL_NO_DEFAULT_LIB__ /Gm- /EHsc /RTC1 /MDd /GS /fp:precise /Zc:wchar_t /Zc:forScope /Zc:inline /Yc"pch.h" /Fp"DEBUG\IDE.PCH" /Fo"DEBUG\\" /Fd"DEBUG\VC141.PDB" /Gd /TP /wd4453 /wd28204 /FU"C:\PROGRAM FILES (X86)\MICROSOFT VISUAL STUDIO\2017\COMMUNITY\VC\TOOLS\MSVC\14.16.27023\LIB\X86\STORE\REFERENCES\PLATFORM.WINMD" /FU"C:\PROGRAM FILES (X86)\WINDOWS KITS\10\REFERENCES\10.0.17134.0\WINDOWS.AI.MACHINELEARNING.PREVIEW.MACHINELEARNINGPREVIEWCONTRACT\1.0.0.0\WINDOWS.AI.MACHINELEARNING.PREVIEW.MACHINELEARNINGPREVIEWCONTRACT.WINMD" /FU"C:\PROGRAM FILES (X86)\WINDOWS KITS\10\REFERENCES\10.0.17134.0\WINDOWS.APPLICATIONMODEL.CALLS.CALLSVOIPCONTRACT\3.0.0.0\WINDOWS.APPLICATIONMODEL.CALLS.CALLSVOIPCONTRACT.WINMD" /FU"C:\PROGRAM FILES (X86)\WINDOWS KITS\10\REFERENCES\10.0.17134.0\WINDOWS.APPLICATIONMODEL.SOCIALINFO.SOCIALINFOCONTRACT\2.0.0.0\WINDOWS.APPLICATIONMODEL.SOCIALINFO.SOCIALINFOCONTRACT.WINMD" /FU"C:\PROGRAM FILES (X86)\WINDOWS KITS\10\REFERENCES\10.0.17134.0\WINDOWS.APPLICATIONMODEL.STARTUPTASKCONTRACT\3.0.0.0\WINDOWS.APPLICATIONMODEL.STARTUPTASKCONTRACT.WINMD" /FU"C:\PROGRAM FILES (X86)\WINDOWS KITS\10\REFERENCES\10.0.17134.0\WINDOWS.DEVICES.CUSTOM.CUSTOMDEVICECONTRACT\1.0.0.0\WINDOWS.DEVICES.CUSTOM.CUSTOMDEVICECONTRACT.WINMD" /FU"C:\PROGRAM FILES (X86)\WINDOWS KITS\10\REFERENCES\10.0.17134.0\WINDOWS.DEVICES.DEVICESLOWLEVELCONTRACT\3.0.0.0\WINDOWS.DEVICES.DEVICESLOWLEVELCONTRACT.WINMD" /FU"C:\PROGRAM FILES (X86)\WINDOWS KITS\10\REFERENCES\10.0.17134.0\WINDOWS.DEVICES.PRINTERS.PRINTERSCONTRACT\1.0.0.0\WINDOWS.DEVICES.PRINTERS.PRINTERSCONTRACT.WINMD" /FU"C:\PROGRAM FILES (X86)\WINDOWS KITS\10\REFERENCES\10.0.17134.0\WINDOWS.DEVICES.SMARTCARDS.SMARTCARDBACKGROUNDTRIGGERCONTRACT\3.0.0.0\WINDOWS.DEVICES.SMARTCARDS.SMARTCARDBACKGROUNDTRIGGERCONTRACT.WINMD" /FU"C:\PROGRAM FILES (X86)\WINDOWS KITS\10\REFERENCES\10.0.17134.0\WINDOWS.DEVICES.SMARTCARDS.SMARTCARDEMULATORCONTRACT\5.0.0.0\WINDOWS.DEVICES.SMARTCARDS.SMARTCARDEMULATORCONTRACT.WINMD" /FU"C:\PROGRAM FILES (X86)\WINDOWS KITS\10\REFERENCES\10.0.17134.0\WINDOWS.FOUNDATION.FOUNDATIONCONTRACT\3.0.0.0\WINDOWS.FOUNDATION.FOUNDATIONCONTRACT.WINMD" /FU"C:\PROGRAM FILES (X86)\WINDOWS KITS\10\REFERENCES\10.0.17134.0\WINDOWS.FOUNDATION.UNIVERSALAPICONTRACT\6.0.0.0\WINDOWS.FOUNDATION.UNIVERSALAPICONTRACT.WINMD" /FU"C:\PROGRAM FILES (X86)\WINDOWS KITS\10\REFERENCES\10.0.17134.0\WINDOWS.GAMING.XBOXLIVE.STORAGEAPICONTRACT\1.0.0.0\WINDOWS.GAMING.XBOXLIVE.STORAGEAPICONTRACT.WINMD" /FU"C:\PROGRAM FILES (X86)\WINDOWS KITS\10\REFERENCES\10.0.17134.0\WINDOWS.GRAPHICS.PRINTING3D.PRINTING3DCONTRACT\4.0.0.0\WINDOWS.GRAPHICS.PRINTING3D.PRINTING3DCONTRACT.WINMD" /FU"C:\PROGRAM FILES (X86)\WINDOWS KITS\10\REFERENCES\10.0.17134.0\WINDOWS.NETWORKING.CONNECTIVITY.WWANCONTRACT\2.0.0.0\WINDOWS.NETWORKING.CONNECTIVITY.WWANCONTRACT.WINMD" /FU"C:\PROGRAM FILES (X86)\WINDOWS KITS\10\REFERENCES\10.0.17134.0\WINDOWS.SERVICES.STORE.STORECONTRACT\3.0.0.0\WINDOWS.SERVICES.STORE.STORECONTRACT.WINMD" /FU"C:\PROGRAM FILES (X86)\WINDOWS KITS\10\REFERENCES\10.0.17134.0\WINDOWS.SERVICES.TARGETEDCONTENT.TARGETEDCONTENTCONTRACT\1.0.0.0\WINDOWS.SERVICES.TARGETEDCONTENT.TARGETEDCONTENTCONTRACT.WINMD" /FU"C:\PROGRAM FILES (X86)\WINDOWS KITS\10\REFERENCES\10.0.17134.0\WINDOWS.SYSTEM.PROFILE.PROFILEHARDWARETOKENCONTRACT\1.0.0.0\WINDOWS.SYSTEM.PROFILE.PROFILEHARDWARETOKENCONTRACT.WINMD" /FU"C:\PROGRAM FILES (X86)\WINDOWS KITS\10\REFERENCES\10.0.17134.0\WINDOWS.SYSTEM.PROFILE.PROFILESHAREDMODECONTRACT\2.0.0.0\WINDOWS.SYSTEM.PROFILE.PROFILESHAREDMODECONTRACT.WINMD" /FU"C:\PROGRAM FILES (X86)\WINDOWS KITS\10\REFERENCES\10.0.17134.0\WINDOWS.UI.VIEWMANAGEMENT.VIEWMANAGEMENTVIEWSCALINGCONTRACT\1.0.0.0\WINDOWS.UI.VIEWMANAGEMENT.VIEWMANAGEMENTVIEWSCALINGCONTRACT.WINMD" /analyze- /FC /bigobj  C:\MYVISUALSTUDIO2017PROJECTS\03-WINRT\GUI\IDE\PCH.CPP
^C:\MYVISUALSTUDIO2017PROJECTS\03-WINRT\GUI\IDE\APP.XAML.CPP
/c /I"C:\MYVISUALSTUDIO2017PROJECTS\03-WINRT\GUI\IDE\\" /I"GENERATED FILES\\" /IDEBUG\ /ZI /JMC /ZW /ZW:nostdlib /nologo /W3 /WX- /diagnostics:classic /sdl /Od /Oy- /D _UNICODE /D UNICODE /D _DEBUG /D WINAPI_FAMILY=WINAPI_FAMILY_APP /D __WRL_NO_DEFAULT_LIB__ /Gm- /EHsc /RTC1 /MDd /GS /fp:precise /Zc:wchar_t /Zc:forScope /Zc:inline /Yu"pch.h" /Fp"DEBUG\IDE.PCH" /Fo"DEBUG\\" /Fd"DEBUG\VC141.PDB" /Gd /TP /wd4453 /wd28204 /FU"C:\PROGRAM FILES (X86)\MICROSOFT VISUAL STUDIO\2017\COMMUNITY\VC\TOOLS\MSVC\14.16.27023\LIB\X86\STORE\REFERENCES\PLATFORM.WINMD" /FU"C:\PROGRAM FILES (X86)\WINDOWS KITS\10\REFERENCES\10.0.17134.0\WINDOWS.AI.MACHINELEARNING.PREVIEW.MACHINELEARNINGPREVIEWCONTRACT\1.0.0.0\WINDOWS.AI.MACHINELEARNING.PREVIEW.MACHINELEARNINGPREVIEWCONTRACT.WINMD" /FU"C:\PROGRAM FILES (X86)\WINDOWS KITS\10\REFERENCES\10.0.17134.0\WINDOWS.APPLICATIONMODEL.CALLS.CALLSVOIPCONTRACT\3.0.0.0\WINDOWS.APPLICATIONMODEL.CALLS.CALLSVOIPCONTRACT.WINMD" /FU"C:\PROGRAM FILES (X86)\WINDOWS KITS\10\REFERENCES\10.0.17134.0\WINDOWS.APPLICATIONMODEL.SOCIALINFO.SOCIALINFOCONTRACT\2.0.0.0\WINDOWS.APPLICATIONMODEL.SOCIALINFO.SOCIALINFOCONTRACT.WINMD" /FU"C:\PROGRAM FILES (X86)\WINDOWS KITS\10\REFERENCES\10.0.17134.0\WINDOWS.APPLICATIONMODEL.STARTUPTASKCONTRACT\3.0.0.0\WINDOWS.APPLICATIONMODEL.STARTUPTASKCONTRACT.WINMD" /FU"C:\PROGRAM FILES (X86)\WINDOWS KITS\10\REFERENCES\10.0.17134.0\WINDOWS.DEVICES.CUSTOM.CUSTOMDEVICECONTRACT\1.0.0.0\WINDOWS.DEVICES.CUSTOM.CUSTOMDEVICECONTRACT.WINMD" /FU"C:\PROGRAM FILES (X86)\WINDOWS KITS\10\REFERENCES\10.0.17134.0\WINDOWS.DEVICES.DEVICESLOWLEVELCONTRACT\3.0.0.0\WINDOWS.DEVICES.DEVICESLOWLEVELCONTRACT.WINMD" /FU"C:\PROGRAM FILES (X86)\WINDOWS KITS\10\REFERENCES\10.0.17134.0\WINDOWS.DEVICES.PRINTERS.PRINTERSCONTRACT\1.0.0.0\WINDOWS.DEVICES.PRINTERS.PRINTERSCONTRACT.WINMD" /FU"C:\PROGRAM FILES (X86)\WINDOWS KITS\10\REFERENCES\10.0.17134.0\WINDOWS.DEVICES.SMARTCARDS.SMARTCARDBACKGROUNDTRIGGERCONTRACT\3.0.0.0\WINDOWS.DEVICES.SMARTCARDS.SMARTCARDBACKGROUNDTRIGGERCONTRACT.WINMD" /FU"C:\PROGRAM FILES (X86)\WINDOWS KITS\10\REFERENCES\10.0.17134.0\WINDOWS.DEVICES.SMARTCARDS.SMARTCARDEMULATORCONTRACT\5.0.0.0\WINDOWS.DEVICES.SMARTCARDS.SMARTCARDEMULATORCONTRACT.WINMD" /FU"C:\PROGRAM FILES (X86)\WINDOWS KITS\10\REFERENCES\10.0.17134.0\WINDOWS.FOUNDATION.FOUNDATIONCONTRACT\3.0.0.0\WINDOWS.FOUNDATION.FOUNDATIONCONTRACT.WINMD" /FU"C:\PROGRAM FILES (X86)\WINDOWS KITS\10\REFERENCES\10.0.17134.0\WINDOWS.FOUNDATION.UNIVERSALAPICONTRACT\6.0.0.0\WINDOWS.FOUNDATION.UNIVERSALAPICONTRACT.WINMD" /FU"C:\PROGRAM FILES (X86)\WINDOWS KITS\10\REFERENCES\10.0.17134.0\WINDOWS.GAMING.XBOXLIVE.STORAGEAPICONTRACT\1.0.0.0\WINDOWS.GAMING.XBOXLIVE.STORAGEAPICONTRACT.WINMD" /FU"C:\PROGRAM FILES (X86)\WINDOWS KITS\10\REFERENCES\10.0.17134.0\WINDOWS.GRAPHICS.PRINTING3D.PRINTING3DCONTRACT\4.0.0.0\WINDOWS.GRAPHICS.PRINTING3D.PRINTING3DCONTRACT.WINMD" /FU"C:\PROGRAM FILES (X86)\WINDOWS KITS\10\REFERENCES\10.0.17134.0\WINDOWS.NETWORKING.CONNECTIVITY.WWANCONTRACT\2.0.0.0\WINDOWS.NETWORKING.CONNECTIVITY.WWANCONTRACT.WINMD" /FU"C:\PROGRAM FILES (X86)\WINDOWS KITS\10\REFERENCES\10.0.17134.0\WINDOWS.SERVICES.STORE.STORECONTRACT\3.0.0.0\WINDOWS.SERVICES.STORE.STORECONTRACT.WINMD" /FU"C:\PROGRAM FILES (X86)\WINDOWS KITS\10\REFERENCES\10.0.17134.0\WINDOWS.SERVICES.TARGETEDCONTENT.TARGETEDCONTENTCONTRACT\1.0.0.0\WINDOWS.SERVICES.TARGETEDCONTENT.TARGETEDCONTENTCONTRACT.WINMD" /FU"C:\PROGRAM FILES (X86)\WINDOWS KITS\10\REFERENCES\10.0.17134.0\WINDOWS.SYSTEM.PROFILE.PROFILEHARDWARETOKENCONTRACT\1.0.0.0\WINDOWS.SYSTEM.PROFILE.PROFILEHARDWARETOKENCONTRACT.WINMD" /FU"C:\PROGRAM FILES (X86)\WINDOWS KITS\10\REFERENCES\10.0.17134.0\WINDOWS.SYSTEM.PROFILE.PROFILESHAREDMODECONTRACT\2.0.0.0\WINDOWS.SYSTEM.PROFILE.PROFILESHAREDMODECONTRACT.WINMD" /FU"C:\PROGRAM FILES (X86)\WINDOWS KITS\10\REFERENCES\10.0.17134.0\WINDOWS.UI.VIEWMANAGEMENT.VIEWMANAGEMENTVIEWSCALINGCONTRACT\1.0.0.0\WINDOWS.UI.VIEWMANAGEMENT.VIEWMANAGEMENTVIEWSCALINGCONTRACT.WINMD" /analyze- /FC /bigobj  C:\MYVISUALSTUDIO2017PROJECTS\03-WINRT\GUI\IDE\APP.XAML.CPP
^C:\MYVISUALSTUDIO2017PROJECTS\03-WINRT\GUI\IDE\MAINPAGE.XAML.CPP
/c /I"C:\MYVISUALSTUDIO2017PROJECTS\03-WINRT\GUI\IDE\\" /I"GENERATED FILES\\" /IDEBUG\ /ZI /JMC /ZW /ZW:nostdlib /nologo /W3 /WX- /diagnostics:classic /sdl /Od /Oy- /D _UNICODE /D UNICODE /D _DEBUG /D WINAPI_FAMILY=WINAPI_FAMILY_APP /D __WRL_NO_DEFAULT_LIB__ /Gm- /EHsc /RTC1 /MDd /GS /fp:precise /Zc:wchar_t /Zc:forScope /Zc:inline /Yu"pch.h" /Fp"DEBUG\IDE.PCH" /Fo"DEBUG\\" /Fd"DEBUG\VC141.PDB" /Gd /TP /wd4453 /wd28204 /FU"C:\PROGRAM FILES (X86)\MICROSOFT VISUAL STUDIO\2017\COMMUNITY\VC\TOOLS\MSVC\14.16.27023\LIB\X86\STORE\REFERENCES\PLATFORM.WINMD" /FU"C:\PROGRAM FILES (X86)\WINDOWS KITS\10\REFERENCES\10.0.17134.0\WINDOWS.AI.MACHINELEARNING.PREVIEW.MACHINELEARNINGPREVIEWCONTRACT\1.0.0.0\WINDOWS.AI.MACHINELEARNING.PREVIEW.MACHINELEARNINGPREVIEWCONTRACT.WINMD" /FU"C:\PROGRAM FILES (X86)\WINDOWS KITS\10\REFERENCES\10.0.17134.0\WINDOWS.APPLICATIONMODEL.CALLS.CALLSVOIPCONTRACT\3.0.0.0\WINDOWS.APPLICATIONMODEL.CALLS.CALLSVOIPCONTRACT.WINMD" /FU"C:\PROGRAM FILES (X86)\WINDOWS KITS\10\REFERENCES\10.0.17134.0\WINDOWS.APPLICATIONMODEL.SOCIALINFO.SOCIALINFOCONTRACT\2.0.0.0\WINDOWS.APPLICATIONMODEL.SOCIALINFO.SOCIALINFOCONTRACT.WINMD" /FU"C:\PROGRAM FILES (X86)\WINDOWS KITS\10\REFERENCES\10.0.17134.0\WINDOWS.APPLICATIONMODEL.STARTUPTASKCONTRACT\3.0.0.0\WINDOWS.APPLICATIONMODEL.STARTUPTASKCONTRACT.WINMD" /FU"C:\PROGRAM FILES (X86)\WINDOWS KITS\10\REFERENCES\10.0.17134.0\WINDOWS.DEVICES.CUSTOM.CUSTOMDEVICECONTRACT\1.0.0.0\WINDOWS.DEVICES.CUSTOM.CUSTOMDEVICECONTRACT.WINMD" /FU"C:\PROGRAM FILES (X86)\WINDOWS KITS\10\REFERENCES\10.0.17134.0\WINDOWS.DEVICES.DEVICESLOWLEVELCONTRACT\3.0.0.0\WINDOWS.DEVICES.DEVICESLOWLEVELCONTRACT.WINMD" /FU"C:\PROGRAM FILES (X86)\WINDOWS KITS\10\REFERENCES\10.0.17134.0\WINDOWS.DEVICES.PRINTERS.PRINTERSCONTRACT\1.0.0.0\WINDOWS.DEVICES.PRINTERS.PRINTERSCONTRACT.WINMD" /FU"C:\PROGRAM FILES (X86)\WINDOWS KITS\10\REFERENCES\10.0.17134.0\WINDOWS.DEVICES.SMARTCARDS.SMARTCARDBACKGROUNDTRIGGERCONTRACT\3.0.0.0\WINDOWS.DEVICES.SMARTCARDS.SMARTCARDBACKGROUNDTRIGGERCONTRACT.WINMD" /FU"C:\PROGRAM FILES (X86)\WINDOWS KITS\10\REFERENCES\10.0.17134.0\WINDOWS.DEVICES.SMARTCARDS.SMARTCARDEMULATORCONTRACT\5.0.0.0\WINDOWS.DEVICES.SMARTCARDS.SMARTCARDEMULATORCONTRACT.WINMD" /FU"C:\PROGRAM FILES (X86)\WINDOWS KITS\10\REFERENCES\10.0.17134.0\WINDOWS.FOUNDATION.FOUNDATIONCONTRACT\3.0.0.0\WINDOWS.FOUNDATION.FOUNDATIONCONTRACT.WINMD" /FU"C:\PROGRAM FILES (X86)\WINDOWS KITS\10\REFERENCES\10.0.17134.0\WINDOWS.FOUNDATION.UNIVERSALAPICONTRACT\6.0.0.0\WINDOWS.FOUNDATION.UNIVERSALAPICONTRACT.WINMD" /FU"C:\PROGRAM FILES (X86)\WINDOWS KITS\10\REFERENCES\10.0.17134.0\WINDOWS.GAMING.XBOXLIVE.STORAGEAPICONTRACT\1.0.0.0\WINDOWS.GAMING.XBOXLIVE.STORAGEAPICONTRACT.WINMD" /FU"C:\PROGRAM FILES (X86)\WINDOWS KITS\10\REFERENCES\10.0.17134.0\WINDOWS.GRAPHICS.PRINTING3D.PRINTING3DCONTRACT\4.0.0.0\WINDOWS.GRAPHICS.PRINTING3D.PRINTING3DCONTRACT.WINMD" /FU"C:\PROGRAM FILES (X86)\WINDOWS KITS\10\REFERENCES\10.0.17134.0\WINDOWS.NETWORKING.CONNECTIVITY.WWANCONTRACT\2.0.0.0\WINDOWS.NETWORKING.CONNECTIVITY.WWANCONTRACT.WINMD" /FU"C:\PROGRAM FILES (X86)\WINDOWS KITS\10\REFERENCES\10.0.17134.0\WINDOWS.SERVICES.STORE.STORECONTRACT\3.0.0.0\WINDOWS.SERVICES.STORE.STORECONTRACT.WINMD" /FU"C:\PROGRAM FILES (X86)\WINDOWS KITS\10\REFERENCES\10.0.17134.0\WINDOWS.SERVICES.TARGETEDCONTENT.TARGETEDCONTENTCONTRACT\1.0.0.0\WINDOWS.SERVICES.TARGETEDCONTENT.TARGETEDCONTENTCONTRACT.WINMD" /FU"C:\PROGRAM FILES (X86)\WINDOWS KITS\10\REFERENCES\10.0.17134.0\WINDOWS.SYSTEM.PROFILE.PROFILEHARDWARETOKENCONTRACT\1.0.0.0\WINDOWS.SYSTEM.PROFILE.PROFILEHARDWARETOKENCONTRACT.WINMD" /FU"C:\PROGRAM FILES (X86)\WINDOWS KITS\10\REFERENCES\10.0.17134.0\WINDOWS.SYSTEM.PROFILE.PROFILESHAREDMODECONTRACT\2.0.0.0\WINDOWS.SYSTEM.PROFILE.PROFILESHAREDMODECONTRACT.WINMD" /FU"C:\PROGRAM FILES (X86)\WINDOWS KITS\10\REFERENCES\10.0.17134.0\WINDOWS.UI.VIEWMANAGEMENT.VIEWMANAGEMENTVIEWSCALINGCONTRACT\1.0.0.0\WINDOWS.UI.VIEWMANAGEMENT.VIEWMANAGEMENTVIEWSCALINGCONTRACT.WINMD" /analyze- /FC /bigobj  C:\MYVISUALSTUDIO2017PROJECTS\03-WINRT\GUI\IDE\MAINPAGE.XAML.CPP
^C:\MYVISUALSTUDIO2017PROJECTS\03-WINRT\GUI\IDE\GENERATED FILES\XAMLTYPEINFO.IMPL.G.CPP
/c /I"C:\MYVISUALSTUDIO2017PROJECTS\03-WINRT\GUI\IDE\\" /I"GENERATED FILES\\" /IDEBUG\ /ZI /JMC /ZW /ZW:nostdlib /nologo /W3 /WX- /diagnostics:classic /sdl /Od /Oy- /D _UNICODE /D UNICODE /D _DEBUG /D WINAPI_FAMILY=WINAPI_FAMILY_APP /D __WRL_NO_DEFAULT_LIB__ /Gm- /EHsc /RTC1 /MDd /GS /fp:precise /Zc:wchar_t /Zc:forScope /Zc:inline /Yu"pch.h" /Fp"DEBUG\IDE.PCH" /Fo"DEBUG\\" /Fd"DEBUG\VC141.PDB" /Gd /TP /wd4453 /wd28204 /FU"C:\PROGRAM FILES (X86)\MICROSOFT VISUAL STUDIO\2017\COMMUNITY\VC\TOOLS\MSVC\14.16.27023\LIB\X86\STORE\REFERENCES\PLATFORM.WINMD" /FU"C:\PROGRAM FILES (X86)\WINDOWS KITS\10\REFERENCES\10.0.17134.0\WINDOWS.AI.MACHINELEARNING.PREVIEW.MACHINELEARNINGPREVIEWCONTRACT\1.0.0.0\WINDOWS.AI.MACHINELEARNING.PREVIEW.MACHINELEARNINGPREVIEWCONTRACT.WINMD" /FU"C:\PROGRAM FILES (X86)\WINDOWS KITS\10\REFERENCES\10.0.17134.0\WINDOWS.APPLICATIONMODEL.CALLS.CALLSVOIPCONTRACT\3.0.0.0\WINDOWS.APPLICATIONMODEL.CALLS.CALLSVOIPCONTRACT.WINMD" /FU"C:\PROGRAM FILES (X86)\WINDOWS KITS\10\REFERENCES\10.0.17134.0\WINDOWS.APPLICATIONMODEL.SOCIALINFO.SOCIALINFOCONTRACT\2.0.0.0\WINDOWS.APPLICATIONMODEL.SOCIALINFO.SOCIALINFOCONTRACT.WINMD" /FU"C:\PROGRAM FILES (X86)\WINDOWS KITS\10\REFERENCES\10.0.17134.0\WINDOWS.APPLICATIONMODEL.STARTUPTASKCONTRACT\3.0.0.0\WINDOWS.APPLICATIONMODEL.STARTUPTASKCONTRACT.WINMD" /FU"C:\PROGRAM FILES (X86)\WINDOWS KITS\10\REFERENCES\10.0.17134.0\WINDOWS.DEVICES.CUSTOM.CUSTOMDEVICECONTRACT\1.0.0.0\WINDOWS.DEVICES.CUSTOM.CUSTOMDEVICECONTRACT.WINMD" /FU"C:\PROGRAM FILES (X86)\WINDOWS KITS\10\REFERENCES\10.0.17134.0\WINDOWS.DEVICES.DEVICESLOWLEVELCONTRACT\3.0.0.0\WINDOWS.DEVICES.DEVICESLOWLEVELCONTRACT.WINMD" /FU"C:\PROGRAM FILES (X86)\WINDOWS KITS\10\REFERENCES\10.0.17134.0\WINDOWS.DEVICES.PRINTERS.PRINTERSCONTRACT\1.0.0.0\WINDOWS.DEVICES.PRINTERS.PRINTERSCONTRACT.WINMD" /FU"C:\PROGRAM FILES (X86)\WINDOWS KITS\10\REFERENCES\10.0.17134.0\WINDOWS.DEVICES.SMARTCARDS.SMARTCARDBACKGROUNDTRIGGERCONTRACT\3.0.0.0\WINDOWS.DEVICES.SMARTCARDS.SMARTCARDBACKGROUNDTRIGGERCONTRACT.WINMD" /FU"C:\PROGRAM FILES (X86)\WINDOWS KITS\10\REFERENCES\10.0.17134.0\WINDOWS.DEVICES.SMARTCARDS.SMARTCARDEMULATORCONTRACT\5.0.0.0\WINDOWS.DEVICES.SMARTCARDS.SMARTCARDEMULATORCONTRACT.WINMD" /FU"C:\PROGRAM FILES (X86)\WINDOWS KITS\10\REFERENCES\10.0.17134.0\WINDOWS.FOUNDATION.FOUNDATIONCONTRACT\3.0.0.0\WINDOWS.FOUNDATION.FOUNDATIONCONTRACT.WINMD" /FU"C:\PROGRAM FILES (X86)\WINDOWS KITS\10\REFERENCES\10.0.17134.0\WINDOWS.FOUNDATION.UNIVERSALAPICONTRACT\6.0.0.0\WINDOWS.FOUNDATION.UNIVERSALAPICONTRACT.WINMD" /FU"C:\PROGRAM FILES (X86)\WINDOWS KITS\10\REFERENCES\10.0.17134.0\WINDOWS.GAMING.XBOXLIVE.STORAGEAPICONTRACT\1.0.0.0\WINDOWS.GAMING.XBOXLIVE.STORAGEAPICONTRACT.WINMD" /FU"C:\PROGRAM FILES (X86)\WINDOWS KITS\10\REFERENCES\10.0.17134.0\WINDOWS.GRAPHICS.PRINTING3D.PRINTING3DCONTRACT\4.0.0.0\WINDOWS.GRAPHICS.PRINTING3D.PRINTING3DCONTRACT.WINMD" /FU"C:\PROGRAM FILES (X86)\WINDOWS KITS\10\REFERENCES\10.0.17134.0\WINDOWS.NETWORKING.CONNECTIVITY.WWANCONTRACT\2.0.0.0\WINDOWS.NETWORKING.CONNECTIVITY.WWANCONTRACT.WINMD" /FU"C:\PROGRAM FILES (X86)\WINDOWS KITS\10\REFERENCES\10.0.17134.0\WINDOWS.SERVICES.STORE.STORECONTRACT\3.0.0.0\WINDOWS.SERVICES.STORE.STORECONTRACT.WINMD" /FU"C:\PROGRAM FILES (X86)\WINDOWS KITS\10\REFERENCES\10.0.17134.0\WINDOWS.SERVICES.TARGETEDCONTENT.TARGETEDCONTENTCONTRACT\1.0.0.0\WINDOWS.SERVICES.TARGETEDCONTENT.TARGETEDCONTENTCONTRACT.WINMD" /FU"C:\PROGRAM FILES (X86)\WINDOWS KITS\10\REFERENCES\10.0.17134.0\WINDOWS.SYSTEM.PROFILE.PROFILEHARDWARETOKENCONTRACT\1.0.0.0\WINDOWS.SYSTEM.PROFILE.PROFILEHARDWARETOKENCONTRACT.WINMD" /FU"C:\PROGRAM FILES (X86)\WINDOWS KITS\10\REFERENCES\10.0.17134.0\WINDOWS.SYSTEM.PROFILE.PROFILESHAREDMODECONTRACT\2.0.0.0\WINDOWS.SYSTEM.PROFILE.PROFILESHAREDMODECONTRACT.WINMD" /FU"C:\PROGRAM FILES (X86)\WINDOWS KITS\10\REFERENCES\10.0.17134.0\WINDOWS.UI.VIEWMANAGEMENT.VIEWMANAGEMENTVIEWSCALINGCONTRACT\1.0.0.0\WINDOWS.UI.VIEWMANAGEMENT.VIEWMANAGEMENTVIEWSCALINGCONTRACT.WINMD" /analyze- /FC /bigobj  C:\MYVISUALSTUDIO2017PROJECTS\03-WINRT\GUI\IDE\GENERATED FILES\XAMLTYPEINFO.IMPL.G.CPP
^C:\MYVISUALSTUDIO2017PROJECTS\03-WINRT\GUI\IDE\GENERATED FILES\XAMLTYPEINFO.G.CPP
/c /I"C:\MYVISUALSTUDIO2017PROJECTS\03-WINRT\GUI\IDE\\" /I"GENERATED FILES\\" /IDEBUG\ /ZI /JMC /ZW /ZW:nostdlib /nologo /W3 /WX- /diagnostics:classic /sdl /Od /Oy- /D _UNICODE /D UNICODE /D _DEBUG /D WINAPI_FAMILY=WINAPI_FAMILY_APP /D __WRL_NO_DEFAULT_LIB__ /Gm- /EHsc /RTC1 /MDd /GS /fp:precise /Zc:wchar_t /Zc:forScope /Zc:inline /Yu"pch.h" /Fp"DEBUG\IDE.PCH" /Fo"DEBUG\\" /Fd"DEBUG\VC141.PDB" /Gd /TP /wd4453 /wd28204 /FU"C:\PROGRAM FILES (X86)\MICROSOFT VISUAL STUDIO\2017\COMMUNITY\VC\TOOLS\MSVC\14.16.27023\LIB\X86\STORE\REFERENCES\PLATFORM.WINMD" /FU"C:\PROGRAM FILES (X86)\WINDOWS KITS\10\REFERENCES\10.0.17134.0\WINDOWS.AI.MACHINELEARNING.PREVIEW.MACHINELEARNINGPREVIEWCONTRACT\1.0.0.0\WINDOWS.AI.MACHINELEARNING.PREVIEW.MACHINELEARNINGPREVIEWCONTRACT.WINMD" /FU"C:\PROGRAM FILES (X86)\WINDOWS KITS\10\REFERENCES\10.0.17134.0\WINDOWS.APPLICATIONMODEL.CALLS.CALLSVOIPCONTRACT\3.0.0.0\WINDOWS.APPLICATIONMODEL.CALLS.CALLSVOIPCONTRACT.WINMD" /FU"C:\PROGRAM FILES (X86)\WINDOWS KITS\10\REFERENCES\10.0.17134.0\WINDOWS.APPLICATIONMODEL.SOCIALINFO.SOCIALINFOCONTRACT\2.0.0.0\WINDOWS.APPLICATIONMODEL.SOCIALINFO.SOCIALINFOCONTRACT.WINMD" /FU"C:\PROGRAM FILES (X86)\WINDOWS KITS\10\REFERENCES\10.0.17134.0\WINDOWS.APPLICATIONMODEL.STARTUPTASKCONTRACT\3.0.0.0\WINDOWS.APPLICATIONMODEL.STARTUPTASKCONTRACT.WINMD" /FU"C:\PROGRAM FILES (X86)\WINDOWS KITS\10\REFERENCES\10.0.17134.0\WINDOWS.DEVICES.CUSTOM.CUSTOMDEVICECONTRACT\1.0.0.0\WINDOWS.DEVICES.CUSTOM.CUSTOMDEVICECONTRACT.WINMD" /FU"C:\PROGRAM FILES (X86)\WINDOWS KITS\10\REFERENCES\10.0.17134.0\WINDOWS.DEVICES.DEVICESLOWLEVELCONTRACT\3.0.0.0\WINDOWS.DEVICES.DEVICESLOWLEVELCONTRACT.WINMD" /FU"C:\PROGRAM FILES (X86)\WINDOWS KITS\10\REFERENCES\10.0.17134.0\WINDOWS.DEVICES.PRINTERS.PRINTERSCONTRACT\1.0.0.0\WINDOWS.DEVICES.PRINTERS.PRINTERSCONTRACT.WINMD" /FU"C:\PROGRAM FILES (X86)\WINDOWS KITS\10\REFERENCES\10.0.17134.0\WINDOWS.DEVICES.SMARTCARDS.SMARTCARDBACKGROUNDTRIGGERCONTRACT\3.0.0.0\WINDOWS.DEVICES.SMARTCARDS.SMARTCARDBACKGROUNDTRIGGERCONTRACT.WINMD" /FU"C:\PROGRAM FILES (X86)\WINDOWS KITS\10\REFERENCES\10.0.17134.0\WINDOWS.DEVICES.SMARTCARDS.SMARTCARDEMULATORCONTRACT\5.0.0.0\WINDOWS.DEVICES.SMARTCARDS.SMARTCARDEMULATORCONTRACT.WINMD" /FU"C:\PROGRAM FILES (X86)\WINDOWS KITS\10\REFERENCES\10.0.17134.0\WINDOWS.FOUNDATION.FOUNDATIONCONTRACT\3.0.0.0\WINDOWS.FOUNDATION.FOUNDATIONCONTRACT.WINMD" /FU"C:\PROGRAM FILES (X86)\WINDOWS KITS\10\REFERENCES\10.0.17134.0\WINDOWS.FOUNDATION.UNIVERSALAPICONTRACT\6.0.0.0\WINDOWS.FOUNDATION.UNIVERSALAPICONTRACT.WINMD" /FU"C:\PROGRAM FILES (X86)\WINDOWS KITS\10\REFERENCES\10.0.17134.0\WINDOWS.GAMING.XBOXLIVE.STORAGEAPICONTRACT\1.0.0.0\WINDOWS.GAMING.XBOXLIVE.STORAGEAPICONTRACT.WINMD" /FU"C:\PROGRAM FILES (X86)\WINDOWS KITS\10\REFERENCES\10.0.17134.0\WINDOWS.GRAPHICS.PRINTING3D.PRINTING3DCONTRACT\4.0.0.0\WINDOWS.GRAPHICS.PRINTING3D.PRINTING3DCONTRACT.WINMD" /FU"C:\PROGRAM FILES (X86)\WINDOWS KITS\10\REFERENCES\10.0.17134.0\WINDOWS.NETWORKING.CONNECTIVITY.WWANCONTRACT\2.0.0.0\WINDOWS.NETWORKING.CONNECTIVITY.WWANCONTRACT.WINMD" /FU"C:\PROGRAM FILES (X86)\WINDOWS KITS\10\REFERENCES\10.0.17134.0\WINDOWS.SERVICES.STORE.STORECONTRACT\3.0.0.0\WINDOWS.SERVICES.STORE.STORECONTRACT.WINMD" /FU"C:\PROGRAM FILES (X86)\WINDOWS KITS\10\REFERENCES\10.0.17134.0\WINDOWS.SERVICES.TARGETEDCONTENT.TARGETEDCONTENTCONTRACT\1.0.0.0\WINDOWS.SERVICES.TARGETEDCONTENT.TARGETEDCONTENTCONTRACT.WINMD" /FU"C:\PROGRAM FILES (X86)\WINDOWS KITS\10\REFERENCES\10.0.17134.0\WINDOWS.SYSTEM.PROFILE.PROFILEHARDWARETOKENCONTRACT\1.0.0.0\WINDOWS.SYSTEM.PROFILE.PROFILEHARDWARETOKENCONTRACT.WINMD" /FU"C:\PROGRAM FILES (X86)\WINDOWS KITS\10\REFERENCES\10.0.17134.0\WINDOWS.SYSTEM.PROFILE.PROFILESHAREDMODECONTRACT\2.0.0.0\WINDOWS.SYSTEM.PROFILE.PROFILESHAREDMODECONTRACT.WINMD" /FU"C:\PROGRAM FILES (X86)\WINDOWS KITS\10\REFERENCES\10.0.17134.0\WINDOWS.UI.VIEWMANAGEMENT.VIEWMANAGEMENTVIEWSCALINGCONTRACT\1.0.0.0\WINDOWS.UI.VIEWMANAGEMENT.VIEWMANAGEMENTVIEWSCALINGCONTRACT.WINMD" /analyze- /FC /bigobj  C:\MYVISUALSTUDIO2017PROJECTS\03-WINRT\GUI\IDE\GENERATED FILES\XAMLTYPEINFO.G.CPP
