^C:\MYVISUALSTUDIO2017PROJECTS\03-WINRT\GUI\IDE\PCH.CPP
C:\MYVISUALSTUDIO2017PROJECTS\03-WINRT\GUI\IDE\DEBUG\IDE.PCH
C:\MYVISUALSTUDIO2017PROJECTS\03-WINRT\GUI\IDE\DEBUG\VC141.PDB
C:\MYVISUALSTUDIO2017PROJECTS\03-WINRT\GUI\IDE\DEBUG\VC141.IDB
C:\MYVISUALSTUDIO2017PROJECTS\03-WINRT\GUI\IDE\DEBUG\PCH.OBJ
^C:\MYVISUALSTUDIO2017PROJECTS\03-WINRT\GUI\IDE\APP.XAML.CPP|C:\MYVISUALSTUDIO2017PROJECTS\03-WINRT\GUI\IDE\GENERATED FILES\XAMLTYPEINFO.IMPL.G.CPP|C:\MYVISUALSTUDIO2017PROJECTS\03-WINRT\GUI\IDE\MAINPAGE.XAML.CPP
C:\MYVISUALSTUDIO2017PROJECTS\03-WINRT\GUI\IDE\DEBUG\APP.XAML.OBJ
C:\MYVISUALSTUDIO2017PROJECTS\03-WINRT\GUI\IDE\DEBUG\MAINPAGE.XAML.OBJ
C:\MYVISUALSTUDIO2017PROJECTS\03-WINRT\GUI\IDE\DEBUG\XAMLTYPEINFO.IMPL.G.OBJ
^C:\MYVISUALSTUDIO2017PROJECTS\03-WINRT\GUI\IDE\APP.XAML.CPP
C:\MYVISUALSTUDIO2017PROJECTS\03-WINRT\GUI\IDE\DEBUG\VC141.PDB
^C:\MYVISUALSTUDIO2017PROJECTS\03-WINRT\GUI\IDE\MAINPAGE.XAML.CPP
C:\MYVISUALSTUDIO2017PROJECTS\03-WINRT\GUI\IDE\DEBUG\VC141.PDB
^C:\MYVISUALSTUDIO2017PROJECTS\03-WINRT\GUI\IDE\GENERATED FILES\XAMLTYPEINFO.IMPL.G.CPP
C:\MYVISUALSTUDIO2017PROJECTS\03-WINRT\GUI\IDE\DEBUG\VC141.PDB
^C:\MYVISUALSTUDIO2017PROJECTS\03-WINRT\GUI\IDE\GENERATED FILES\XAMLTYPEINFO.G.CPP
C:\MYVISUALSTUDIO2017PROJECTS\03-WINRT\GUI\IDE\DEBUG\VC141.PDB
C:\MYVISUALSTUDIO2017PROJECTS\03-WINRT\GUI\IDE\DEBUG\VC141.IDB
C:\MYVISUALSTUDIO2017PROJECTS\03-WINRT\GUI\IDE\DEBUG\XAMLTYPEINFO.G.OBJ
